Extra: Control de flujo y funciones – Introducción al lenguaje R + RStudio
…
 [1] "02" "06" "10" "14" "18" "22" "26" "30" "34" "38" "42" "46" "50" "54" "58"
[16] "62" "66" "70" "74" "78" "82" "86" "90" "94"

A continuación vamos a necesitar separar la parte que no se repite y la parte que si. Por ejemplo, la columna donde está la edad cada 5 años es una parte fija que no necesaria volver a leer en cada hoja del archivo, en cambio las poblaciones si varían entre provincia y provincia.

grupo_edad <- read_excel("datos/c2_proyecciones_prov_2010_2040.xls", 
                         sheet = 2, range = "A36:A56", col_names = F)  |>  
  rename("Edad" = "...1")

Leemos el archivo “c2_proyecciones_prov_2010_2040.xls” en su segunda hoja (la primera era la occulta) y con el rango “A36:A56”. Desactivamos nombres de columnas y renombramos con el nombre Edad. Podríamos haber leído cualquiera de las 24 hojas porque la columna de edad es la misma para todas.

grupo_edad

# A tibble: 21 × 1
   Edad 
   <chr>
 1 0-4  
 2 5-9  
 3 10-14
 4 15-19
 5 20-24
 6 25-29
 7 30-34
 8 35-39
 9 40-44
10 45-49
# ℹ 11 more rows
…
El otro inconveniente es que la tabla final no cumple con los datos ordenados, porque Varon y Mujer no deberían ser nombres de variables sino categorías de la variable Sexo.

Aplicamos lo que sabemos de pivoteos con tidyr para arreglarlo.

poblacion <- poblacion |> 
               pivot_longer(cols = c(Varon, Mujer), 
                            names_to = "Sexo",
                            values_to = "Poblacion")

El resultado final es la tabla buscada con poblaciones proyectada por el INDEC de las 24 provincias por sexo y grupos de edades quinquenales en formato tidy-data:

poblacion

# A tibble: 1,008 × 4
   Provincia Edad  Sexo  Poblacion
   <chr>     <chr> <chr>     <dbl>
 1 02        0-4   Varon    101130
 2 02        0-4   Mujer     95310
 3 02        5-9   Varon    101700
 4 02        5-9   Mujer     96044
 5 02        10-14 Varon    100390
 6 02        10-14 Mujer     95056
 7 02        15-19 Varon    101138
 8 02        15-19 Mujer     96827
 9 02        20-24 Varon     97411
10 02        20-24 Mujer     96051
# ℹ 998 more rows
…
La estructura completa unida por tuberías nos quedaría:

datos <- dir_ls(path = "datos", glob = "datos/datos_*_vigilancia.csv") |> 
  map_df(read_csv, .id = "archivo") |> 
  separate_wider_delim(cols = archivo, 
                       delim = "_", 
                       names = c(NA, "mes", NA)) 

El resultado final es que leímos 12 archivos (podrían ser muchos más, todos los que quisiéramos) en tan solo 3 líneas de código unidas por dos tuberías.

datos

# A tibble: 1,884 × 19
   mes      HC SEXO   EDAD ANT_DIABETES ANT_TBC ANT_CANCER ANT_OBESIDAD ANT_ECV
   <chr> <dbl> <chr> <dbl> <chr>        <chr>   <chr>      <chr>        <chr>  
 1 abril 26880 M        17 NO           NO      NO         SI           NO     
 2 abril 26775 M        18 SI           NO      NO         NO           NO     
 3 abril 26877 M        18 SI           NO      SI         NO           NO     
 4 abril 26776 M        18 NO           NO      NO         SI           SI     
 5 abril 26718 M        18 NO           NO      NO         NO           NO     
 6 abril 26738 M        18 NO           NO      NO         NO           NO     
 7 abril 26836 M        18 NO           NO      NO         NO           NO     
 8 abril 26823 M        18 NO           NO      SI         NO           SI     
 9 abril 26711 M        18 NO           NO      SI         SI           NO     
10 abril 26852 M        18 NO           NO      SI         NO           NO     
# ℹ 1,874 more rows
# ℹ 10 more variables: ANT_HT <chr>, ANT_COL <chr>, FUMA <chr>, EDADINI <dbl>,
#   CANTIDAD <dbl>, COL <dbl>, PESO <dbl>, TALLA <dbl>, SIST <dbl>, DIAST <dbl>
…
