Unidad 3: Exploración, diagnóstico y limpieza de datos – Introducción al lenguaje R + RStudio
…
El diagnóstico de datos proporciona información y visualización de valores faltantes, valores atípicos y valores únicos y negativos para ayudarle a comprender la distribución y la calidad de sus datos.

Contiene funciones, compatibles con tidyverse, que nos facilitan ver la calidad de nuestros datos, además de otras que tienen por objetivo la exploración y su transformación.

Entre estas funciones encontramos:

diagnose()

Permite diagnosticar variables del dataframe y devuelve como resultado: el tipo de dato de la variable, la cantidad de valores faltantes, su porcentaje, la cantidad de valores únicos y su tasa (valores únicos/observaciones). Lo observamos en forma de tabla interactiva:

library(dlookr)

diagnose(datos)

# A tibble: 56 × 6
   variables        types missing_count missing_percent unique_count unique_rate
   <chr>            <chr>         <int>           <dbl>        <int>       <dbl>
 1 SEXO             char…             0             0              3        0.01
 2 FECHA_NACIMIENTO Date              0             0            198        0.99
 3 EDAD_DIAGNOSTICO nume…             0             0             71        0.36
 4 GRUPEDAD         char…             0             0             18        0.09
 5 PROVINCIA_RESID… char…             0             0             18        0.09
 6 ID_PROV_INDEC_R… char…             0             0             18        0.09
 7 DEPARTAMENTO_RE… char…             9             4.5           82        0.41
 8 ID_DEPTO_INDEC_… char…             0             0             89        0.44
 9 LOCALIDAD_RESID… char…             0             0            106        0.53
10 ESTABLECIMIENTO… char…             0             0            125        0.62
# ℹ 46 more rows
…
diagnose_category()

Así como existe diagnose() como una función general, también hay funciones que sirven para el diagnóstico específico por tipo de dato.

diagnose_category() lo hace con las variables categóricas, es decir de caracter, de factor y de factor ordenado, mostrando información de cada categoría de cada variable (N, frecuencia, proporción y ranking).

datos|> 
 diagnose_category()

# A tibble: 296 × 6
   variables levels     N  freq ratio  rank
   <chr>     <chr>  <int> <int> <dbl> <int>
 1 SEXO      M        200   131  65.5     1
 2 SEXO      F        200    68  34       2
 3 SEXO      A        200     1   0.5     3
 4 GRUPEDAD  20-24    200    26  13       1
 5 GRUPEDAD  30-34    200    26  13       1
 6 GRUPEDAD  25-29    200    23  11.5     3
 7 GRUPEDAD  40-44    200    16   8       4
 8 GRUPEDAD  45-49    200    16   8       4
 9 GRUPEDAD  15-19    200    15   7.5     6
10 GRUPEDAD  35-39    200    15   7.5     6
# ℹ 286 more rows
…
La función tiene un argumento denominado .keep_all que permite valores TRUE o FALSE. Si se iguala a TRUE se mantienen en el resultado todas las variables que son parte de la tabla, aunque estas no estén declaradas dentro del distinct().

Por defecto, este argumento se encuentra igualado a FALSE.

nrow(datos)

[1] 200

datos |> 
  distinct(SEXO, FECHA_NACIMIENTO, ID_PROV_INDEC_RESIDENCIA, 
           ID_DEPTO_INDEC_RESIDENCIA, 
           .keep_all = T)

# A tibble: 199 × 56
   SEXO  FECHA_NACIMIENTO EDAD_DIAGNOSTICO GRUPEDAD PROVINCIA_RESIDENCIA
   <chr> <date>                      <dbl> <chr>    <chr>               
 1 M     1948-06-22                     74 70-74    Tierra del Fuego    
 2 F     1981-06-20                     41 40-44    Buenos Aires        
 3 F     1989-03-30                     33 30-34    Buenos Aires        
 4 M     2006-11-17                     16 15-19    Chaco               
 5 M     1993-06-02                     29 25-29    Jujuy               
 6 M     1989-04-08                     33 30-34    Buenos Aires        
 7 F     1977-07-30                     45 45-49    Buenos Aires        
 8 M     1968-04-09                     54 50-54    Misiones            
 9 F     2008-01-10                     15 15-19    Chaco               
10 M     1987-11-27                    105 35-39    Buenos Aires        
# ℹ 189 more rows
# ℹ 51 more variables: ID_PROV_INDEC_RESIDENCIA <chr>,
#   DEPARTAMENTO_RESIDENCIA <chr>, ID_DEPTO_INDEC_RESIDENCIA <chr>,
#   LOCALIDAD_RESIDENCIA <chr>, ESTABLECIMIENTO_SALUD <chr>,
#   ESTABLECIMIENTO_CARGA <chr>, PROVINCIA_CARGA <chr>, DEPTO_CARGA <chr>,
#   ESTAB_CLINICA <chr>, DEPTO_CLINICA <chr>, PPL <chr>,
#   SERVICIO_PENITENCIARIO <chr>, FECHA_APERTURA <date>, …
…
Proporciona funciones analíticas y visuales de detección y gestión

Es compatible con el mundo “tidy” de tidyverse

Aborda las relaciones o estructura de la falta de datos.

Posibilita el trabajo de imputación (no tratado en este curso)

De las muchas funciones que tiene el paquete seleccionamos algunas para mostrar que son muy útiles para una tarea básica.

La función miss_var_summary() proporciona un resumen sobre los valores NA en cada variable del dataframe similar a find_na() que vimos anterioremente pero con una salida en forma de tabla y un recento absoluto, además de porcentual.

miss_var_summary(datos)

# A tibble: 58 × 3
   variable                    n_miss pct_miss
   <chr>                        <int>    <num>
 1 ETNIA                          200    100  
 2 TRATAMIENTO_ANTIRRETROVIRAL    199     99.5
 3 COVID                          199     99.5
 4 duplicado                      198     99  
 5 MOTIVO_CONSULTA                181     90.5
 6 FECHA_FIN_TRAT                 142     71  
 7 ESTABLECIMIENTO_DIAG            76     38  
 8 DEPARTAMENTO_DIAG               76     38  
 9 ESTABLECIMIENTO_MUESTRA         72     36  
10 DEPARTAMENTO_MUESTRA            72     36  
# ℹ 48 more rows
…
# A tibble: 0 × 58
# ℹ 58 variables: SEXO <chr>, FECHA_NACIMIENTO <date>, EDAD_DIAGNOSTICO <dbl>,
#   GRUPEDAD <chr>, PROVINCIA_RESIDENCIA <chr>, ID_PROV_INDEC_RESIDENCIA <chr>,
#   DEPARTAMENTO_RESIDENCIA <chr>, ID_DEPTO_INDEC_RESIDENCIA <chr>,
#   LOCALIDAD_RESIDENCIA <chr>, ESTABLECIMIENTO_SALUD <chr>,
#   ESTABLECIMIENTO_CARGA <chr>, PROVINCIA_CARGA <chr>, DEPTO_CARGA <chr>,
#   ESTAB_CLINICA <chr>, DEPTO_CLINICA <chr>, PPL <chr>,
#   SERVICIO_PENITENCIARIO <chr>, FECHA_APERTURA <date>, …

datos |> 
  drop_na(FIS)

# A tibble: 152 × 58
   SEXO  FECHA_NACIMIENTO EDAD_DIAGNOSTICO GRUPEDAD PROVINCIA_RESIDENCIA
   <chr> <date>                      <dbl> <chr>    <chr>               
 1 M     1948-06-22                     74 70-74    Tierra del Fuego    
 2 F     1981-06-20                     41 40-44    Buenos Aires        
 3 F     1989-03-30                     33 30-34    Buenos Aires        
 4 M     2006-11-17                     16 15-19    Chaco               
 5 M     1993-06-02                     29 25-29    Jujuy               
 6 M     1989-04-08                     33 30-34    Buenos Aires        
 7 F     1977-07-30                     45 45-49    Buenos Aires        
 8 F     2008-01-10                     15 15-19    Chaco               
 9 M     1987-11-27                    105 35-39    Buenos Aires        
10 F     2002-12-21                     20 20-24    Buenos Aires        
# ℹ 142 more rows
# ℹ 53 more variables: ID_PROV_INDEC_RESIDENCIA <chr>,
#   DEPARTAMENTO_RESIDENCIA <chr>, ID_DEPTO_INDEC_RESIDENCIA <chr>,
#   LOCALIDAD_RESIDENCIA <chr>, ESTABLECIMIENTO_SALUD <chr>,
#   ESTABLECIMIENTO_CARGA <chr>, PROVINCIA_CARGA <chr>, DEPTO_CARGA <chr>,
#   ESTAB_CLINICA <chr>, DEPTO_CLINICA <chr>, PPL <chr>,
#   SERVICIO_PENITENCIARIO <chr>, FECHA_APERTURA <date>, …
…
